HW/HW#9/Assignment_9/RTL_Ex_8_2_v_jin/simulation/qsim/RTL_Ex_8_2_v_jin.msim.vcd
$comment
	File created using the following command:
		vcd file RTL_Ex_8_2_v_jin.msim.vcd -direction
$end
$date
	Sun Nov 17 19:28:33 2019
$end
$version
	ModelSim Version 10.4b
$end
$timescale
	1ps
$end

$scope module RTL_Ex_8_2_v_jin_vlg_vec_tst $end
$var reg 1 ! CLK $end
$var reg 1 " Clrn $end
$var reg 1 # S $end
$var wire 1 $ A [3] $end
$var wire 1 % A [2] $end
$var wire 1 & A [1] $end
$var wire 1 ' A [0] $end
$var wire 1 ( E $end
$var wire 1 ) F $end

$scope module i1 $end
$var wire 1 * gnd $end
$var wire 1 + vcc $end
$var wire 1 , unknown $end
$var tri1 1 - devclrn $end
$var tri1 1 . devpor $end
$var tri1 1 / devoe $end
$var wire 1 0 E~output_o $end
$var wire 1 1 F~output_o $end
$var wire 1 2 A[0]~output_o $end
$var wire 1 3 A[1]~output_o $end
$var wire 1 4 A[2]~output_o $end
$var wire 1 5 A[3]~output_o $end
$var wire 1 6 CLK~input_o $end
$var wire 1 7 CLK~inputclkctrl_outclk $end
$var wire 1 8 Clrn~input_o $end
$var wire 1 9 S~input_o $end
$var wire 1 : Selector3~0_combout $end
$var wire 1 ; A[0]~0_combout $end
$var wire 1 < A[0]~reg0_q $end
$var wire 1 = Selector2~0_combout $end
$var wire 1 > A[1]~reg0_q $end
$var wire 1 ? Selector1~0_combout $end
$var wire 1 @ A[2]~reg0_q $end
$var wire 1 A Add0~0_combout $end
$var wire 1 B Selector0~0_combout $end
$var wire 1 C A[3]~reg0_q $end
$var wire 1 D nstate.T2~0_combout $end
$var wire 1 E Clrn~inputclkctrl_outclk $end
$var wire 1 F pstate.T2~q $end
$var wire 1 G A[0]~1_combout $end
$var wire 1 H pstate.T0~q $end
$var wire 1 I Selector6~0_combout $end
$var wire 1 J Selector6~1_combout $end
$var wire 1 K pstate.T1~q $end
$var wire 1 L E~0_combout $end
$var wire 1 M E~reg0_q $end
$var wire 1 N F~0_combout $end
$var wire 1 O F~1_combout $end
$var wire 1 P F~reg0_q $end
$upscope $end
$upscope $end
$enddefinitions $end
#0
$dumpvars
0!
1"
0#
x'
x&
x%
x$
x(
x)
0*
1+
x,
1-
1.
1/
x0
x1
x2
x3
x4
x5
06
x7
18
09
x:
x;
0<
x=
0>
x?
0@
xA
xB
0C
xD
xE
0F
xG
0H
xI
xJ
0K
xL
0M
xN
xO
0P
$end
#158
07
#180
1E
#428
0N
#451
0=
#463
0L
#475
0:
#476
0I
#477
0B
#480
0?
#582
0D
#741
0A
#1039
0O
#2947
04
05
0$
0%
#2954
03
0&
#3092
00
0(
#3308
02
0'
#3353
01
0)
#3423
0J
#3572
0G
#3597
0;
#1280000
1!
#1280596
16
#1280776
17
#2560000
0"
0!
#2560761
06
08
#2560919
0E
07
#3840000
1!
#3840596
16
#3840776
17
#5120000
1#
1"
0!
#5120594
19
#5120596
18
#5120761
06
#5120776
1E
#5120919
07
#5123750
1J
#5123883
1;
#5123892
1G
#6400000
1!
#6400596
16
#6400776
17
#6402282
1H
1K
#6402679
1:
#6402682
1I
#7680000
0!
#7680761
06
#7680919
07
#8960000
1!
#8960596
16
#8960776
17
#8962282
1<
#8962651
0:
#8962666
1=
#8965614
12
1'
#10240000
0#
0!
#10240759
09
#10240761
06
#10240919
07
#11520000
1!
#11520596
16
#11520776
17
#11522282
0<
1>
#11522635
1:
#11525206
13
1&
#11525590
02
0'
#12800000
0!
#12800761
06
#12800919
07
#14080000
1!
#14080596
16
#14080776
17
#14082282
1<
#14082651
0:
#14082656
0=
#14082896
1?
#14085614
12
1'
#15360000
1#
0!
#15360594
19
#15360761
06
#15360919
07
#16640000
1!
#16640596
16
#16640776
17
#16642282
0<
0>
1@
#16642635
1:
#16642651
0?
#16642675
1L
#16642984
1?
#16645200
14
1%
#16645236
03
0&
#16645590
02
0'
#17920000
0!
#17920761
06
#17920919
07
#19200000
1!
#19200596
16
#19200776
17
#19202282
1<
1M
#19202651
0:
#19202666
1=
#19205379
10
1(
#19205614
12
1'
#20480000
0#
0!
#20480759
09
#20480761
06
#20480919
07
#21760000
1!
#21760596
16
#21760776
17
#21762282
0<
1>
#21762635
1:
#21765206
13
1&
#21765590
02
0'
#23040000
0!
#23040761
06
#23040919
07
#24320000
1!
#24320596
16
#24320776
17
#24322282
1<
#24322651
0:
#24322656
0=
#24322666
1A
#24322895
0?
#24323080
1B
#24325614
12
1'
#25600000
1#
0!
#25600594
19
#25600761
06
#25600919
07
#26880000
1!
#26880596
16
#26880776
17
#26882282
0<
0>
0@
1C
#26882635
1?
1:
#26882745
0L
#26882983
0?
#26885200
15
1$
#26885229
04
0%
#26885236
03
0&
#26885590
02
0'
#28160000
0!
#28160761
06
#28160919
07
#29440000
0"
1!
#29440596
16
#29440761
08
#29440776
17
#29440919
0E
#29442196
0;
#29442282
1<
0M
#29442442
0K
0H
#29442651
0:
#29442666
1=
#29442918
0I
#29442919
0B
#29443184
0=
#29445374
00
0(
#29445614
12
1'
#30720000
0#
0!
#30720759
09
#30720761
06
#30720919
07
#30724182
0J
#30724331
0G
#32000000
1!
#32000596
16
#32000776
17
#33280000
0!
#33280761
06
#33280919
07
#34560000
1!
#34560596
16
#34560776
17
#35840000
1#
0!
#35840594
19
#35840761
06
#35840919
07
#35843750
1J
#35843892
1G
#37120000
1"
1!
#37120596
16
18
#37120776
1E
17
#37122040
1;
#38400000
0!
#38400761
06
#38400919
07
#39680000
1!
#39680596
16
#39680776
17
#39682282
0<
0C
1H
1K
#39682679
1:
#39682680
1B
#39682682
1I
#39683023
0A
#39683471
0B
#39685229
05
0$
#39685590
02
0'
#40960000
0#
0!
#40960759
09
#40960761
06
#40960919
07
#42240000
1!
#42240596
16
#42240776
17
#42242282
1<
#42242651
0:
#42242666
1=
#42245614
12
1'
#43520000
0!
#43520761
06
#43520919
07
#44800000
1!
#44800596
16
#44800776
17
#44802282
0<
1>
#44802635
1:
#44805206
13
1&
#44805590
02
0'
#46080000
1#
0!
#46080594
19
#46080761
06
#46080919
07
#47360000
1!
#47360596
16
#47360776
17
#47362282
1<
#47362651
0:
#47362656
0=
#47362896
1?
#47365614
12
1'
#48640000
0!
#48640761
06
#48640919
07
#49920000
1!
#49920596
16
#49920776
17
#49922282
0<
0>
1@
#49922635
1:
#49922651
0?
#49922675
1L
#49922984
1?
#49925200
14
1%
#49925236
03
0&
#49925590
02
0'
#51200000
0#
0!
#51200759
09
#51200761
06
#51200919
07
#52480000
1!
#52480596
16
#52480776
17
#52482282
1<
1M
#52482651
0:
#52482666
1=
#52485379
10
1(
#52485614
12
1'
#53760000
0!
#53760761
06
#53760919
07
#55040000
1!
#55040596
16
#55040776
17
#55042282
0<
1>
#55042635
1:
#55045206
13
1&
#55045590
02
0'
#56320000
1#
0!
#56320594
19
#56320761
06
#56320919
07
#57600000
1!
#57600596
16
#57600776
17
#57602282
1<
#57602651
0:
#57602656
0=
#57602666
1A
#57602895
0?
#57603080
1B
#57605614
12
1'
#58880000
0!
#58880761
06
#58880919
07
#60160000
1!
#60160596
16
#60160776
17
#60162282
0<
0>
0@
1C
#60162635
1?
1:
#60162745
0L
#60162983
0?
#60165200
15
1$
#60165229
04
0%
#60165236
03
0&
#60165590
02
0'
#61440000
0"
0#
0!
#61440759
09
#61440761
06
08
#61440919
0E
07
#61442196
0;
#61442328
1L
#61442442
0K
0H
#61442917
0:
#61442918
0I
#61442919
0B
#61444182
0J
#61444331
0G
#62720000
1!
#62720596
16
#62720776
17
#64000000
0!
#64000761
06
#64000919
07
#65280000
1!
#65280596
16
#65280776
17
#66560000
1"
1#
0!
#66560594
19
#66560596
18
#66560761
06
#66560776
1E
#66560919
07
#66563750
1J
#66563883
1;
#66563892
1G
#67840000
1!
#67840596
16
#67840776
17
#67842282
0C
1H
1K
#67842679
1:
#67842680
1B
#67842682
1I
#67842957
0L
#67843023
0A
#67843471
0B
#67845229
05
0$
#69120000
0!
#69120761
06
#69120919
07
#70400000
1!
#70400596
16
#70400776
17
#70402282
1<
0M
#70402651
0:
#70402666
1=
#70405374
00
0(
#70405614
12
1'
#71680000
0#
0!
#71680759
09
#71680761
06
#71680919
07
#72960000
1!
#72960596
16
#72960776
17
#72962282
0<
1>
#72962635
1:
#72965206
13
1&
#72965590
02
0'
#74240000
0!
#74240761
06
#74240919
07
#75520000
1!
#75520596
16
#75520776
17
#75522282
1<
#75522651
0:
#75522656
0=
#75522896
1?
#75525614
12
1'
#76800000
1#
0!
#76800594
19
#76800761
06
#76800919
07
#78080000
1!
#78080596
16
#78080776
17
#78082282
0<
0>
1@
#78082635
1:
#78082651
0?
#78082675
1L
#78082984
1?
#78085200
14
1%
#78085236
03
0&
#78085590
02
0'
#79360000
0!
#79360761
06
#79360919
07
#80640000
1!
#80640596
16
#80640776
17
#80642282
1<
1M
#80642651
0:
#80642666
1=
#80645379
10
1(
#80645614
12
1'
